{
    "editor": [
        {
            "icon": "",
            "key": "settings",
            "header": "Settings",
            "disable": false,
            "fields": [
                {
                    "key": "backgroundImage",
                    "header": "Template background image",
                    "type": "image"
                },
                {
                    "key": "cards",
                    "header": "Card",
                    "type": "array",
                    "fields": [
                        {
                            "key": "card1",
                            "header": "Card 1",
                            "type": "array",
                            "fields": [
                                {
                                    "key": "image",
                                    "header": "Image 1",
                                    "type": "image"
                                },
                                {
                                    "key": "label",
                                    "header": "Label 1",
                                    "type": "text"
                                }
                            ]
                        },
                        {
                            "key": "card2",
                            "header": "Card 2",
                            "type": "array",
                            "fields": [
                                {
                                    "key": "image",
                                    "header": "Image 2",
                                    "type": "image"
                                },
                                {
                                    "key": "label",
                                    "header": "Label 2",
                                    "type": "text"
                                }
                            ]
                        },
                        {
                            "key": "card3",
                            "header": "Card 3",
                            "type": "array",
                            "fields": [
                                {
                                    "key": "image",
                                    "header": "Image 3",
                                    "type": "image"
                                },
                                {
                                    "key": "label",
                                    "header": "Label 3",
                                    "type": "text"
                                }
                            ]
                        },
                        {
                            "key": "card4",
                            "header": "Card 4",
                            "type": "array",
                            "fields": [
                                {
                                    "key": "image",
                                    "header": "Image 4",
                                    "type": "image"
                                },
                                {
                                    "key": "label",
                                    "header": "Label 4",
                                    "type": "text"
                                }
                            ]
                        },
                        {
                            "key": "card5",
                            "header": "Card 5",
                            "type": "array",
                            "fields": [
                                {
                                    "key": "image",
                                    "header": "Image 5",
                                    "type": "image"
                                },
                                {
                                    "key": "label",
                                    "header": "Label 5",
                                    "type": "text"
                                }
                            ]
                        },
                        {
                            "key": "card6",
                            "header": "Card 6",
                            "type": "array",
                            "fields": [
                                {
                                    "key": "image",
                                    "header": "Image 6",
                                    "type": "image"
                                },
                                {
                                    "key": "label",
                                    "header": "Label 6",
                                    "type": "text"
                                }
                            ]
                        },
                        {
                            "key": "card7",
                            "header": "Card 7",
                            "type": "array",
                            "fields": [
                                {
                                    "key": "image",
                                    "header": "Image 7",
                                    "type": "image"
                                },
                                {
                                    "key": "label",
                                    "header": "Label 7",
                                    "type": "text"
                                }
                            ]
                        },
                        {
                            "key": "card8",
                            "header": "Card 8",
                            "type": "array",
                            "fields": [
                                {
                                    "key": "image",
                                    "header": "Image 8",
                                    "type": "image"
                                },
                                {
                                    "key": "label",
                                    "header": "Label 8",
                                    "type": "text"
                                }
                            ]
                        },
                        {
                            "key": "card9",
                            "header": "Card 9",
                            "type": "array",
                            "fields": [
                                {
                                    "key": "image",
                                    "header": "Image 9",
                                    "type": "image"
                                },
                                {
                                    "key": "label",
                                    "header": "Label 9",
                                    "type": "text"
                                }
                            ]
                        },
                        {
                            "key": "card10",
                            "header": "Card 10",
                            "type": "array",
                            "fields": [
                                {
                                    "key": "image",
                                    "header": "Image 10",
                                    "type": "image"
                                },
                                {
                                    "key": "label",
                                    "header": "Label 10",
                                    "type": "text"
                                }
                            ]
                        },
                        {
                            "key": "card11",
                            "header": "Card 11",
                            "type": "array",
                            "fields": [
                                {
                                    "key": "image",
                                    "header": "Image 11",
                                    "type": "image"
                                },
                                {
                                    "key": "label",
                                    "header": "Label 11",
                                    "type": "text"
                                }
                            ]
                        }
                    ]
                }
            ]
        }
    ],
    "config": {
        "settings": {
            "backgroundImage": "https://frontend.apps.playcent.com/0fe4e18390314749844933f4de8b60ea/assets/Fluid_Gradient_Background.jpg",
            "cards": {
                "card1": {
                    "image": "https://frontend.apps.playcent.com/2ed3bf7408a2417eba1676696ba0c23f/assets/summit.jpeg",
                    "label": "CoRise Partners"
                },
                "card2": {
                    "image": "https://frontend.apps.playcent.com/2ed3bf7408a2417eba1676696ba0c23f/assets/images_(3).jpeg",
                    "label": "Devx"
                },
                "card3": {
                    "image": "https://frontend.apps.playcent.com/2ed3bf7408a2417eba1676696ba0c23f/assets/0_(1).jpeg",
                    "label": "Legalwiz"
                },
                "card4": {
                    "image": "https://frontend.apps.playcent.com/2ed3bf7408a2417eba1676696ba0c23f/assets/logo-light.jpeg",
                    "label": "IndiaBiz"
                },
                "card5": {
                    "image": "https://frontend.apps.playcent.com/2ed3bf7408a2417eba1676696ba0c23f/assets/download_(14).jpeg",
                    "label": "ikoverk"
                },
                "card6": {
                    "image": "https://frontend.apps.playcent.com/2ed3bf7408a2417eba1676696ba0c23f/assets/HappySends.jpeg",
                    "label": "HappySends"
                },
                "card7": {
                    "image": "https://frontend.apps.playcent.com/2ed3bf7408a2417eba1676696ba0c23f/assets/CoKarma_.jpeg",
                    "label": "cokarma"
                },
                "card8": {
                    "image": "https://frontend.apps.playcent.com/2ed3bf7408a2417eba1676696ba0c23f/assets/Draper_Logo-02.jpeg",
                    "label": "Draper"
                },
                "card9": {
                    "image": "https://frontend.apps.playcent.com/2ed3bf7408a2417eba1676696ba0c23f/assets/Clientjoy-Logo-black1 (1).jpeg",
                    "label": "Clientjoy"
                },
                "card10": {
                    "image": "https://frontend.apps.playcent.com/2ed3bf7408a2417eba1676696ba0c23f/assets/CIEAt.jpeg",
                    "label": "CIE"
                },
                "card11": {
                    "image": "https://frontend.apps.playcent.com/2ed3bf7408a2417eba1676696ba0c23f/assets/AGBI_.jpeg",
                    "label": "AGB"
                }
            }
        }
    }
}